Linear_Mixed_Effect_Models_2 - Example #2
…
math %>% group_by(Minority, Sex) %>% summarise(.groups = "keep")

# A tibble: 4 × 2
# Groups:   Minority, Sex [4]
  Minority Sex   
  <fct>    <fct> 
1 No       Female
2 No       Male  
3 Yes      Female
4 Yes      Male  

math %>% group_by(School) %>% summarise(.groups = "keep")

# A tibble: 160 × 1
# Groups:   School [160]
   School
    <int>
 1   1224
 2   1288
 3   1296
 4   1308
 5   1317
 6   1358
 7   1374
 8   1433
 9   1436
10   1461
# ℹ 150 more rows
…
