Linear_Mixed_Effect_Models_2 - Example #1
…
# rows
paste0(nrow(alcuse), " rows of data.")

[1] "246 rows of data."

# number of groups and data points
alcuse_sum <- alcuse %>% group_by(ID) %>% 
  summarise(mean = mean(ALCUSE), n_ALCUSE = n()) %>% print(n = 20)

# A tibble: 82 × 3
      ID  mean n_ALCUSE
   <int> <dbl>    <int>
 1     1 1.91         3
 2     2 0.333        3
 3     3 2.11         3
 4     4 1.24         3
 5     5 0            3
 6     6 3.05         3
 7     7 1.73         3
 8     8 0            3
 9     9 1.49         3
10    10 1            3
11    11 1.05         3
12    12 0.911        3
13    13 0.667        3
14    14 3.09         3
15    15 2.14         3
16    16 1.28         3
17    17 0.333        3
18    18 1.58         3
19    19 0            3
20    20 2.64         3
# ℹ 62 more rows
…
